%YAML 1.1
%TAG !u! tag:unity3d.com,2011:
--- !u!114 &11400000
MonoBehaviour:
  m_ObjectHideFlags: 0
  m_CorrespondingSourceObject: {fileID: 0}
  m_PrefabInstance: {fileID: 0}
  m_PrefabAsset: {fileID: 0}
  m_GameObject: {fileID: 0}
  m_Enabled: 1
  m_EditorHideFlags: 0
  m_Script: {fileID: 11500000, guid: 4371a7efc935cb64bbf3c0ede847c72b, type: 3}
  m_Name: Configuration
  m_EditorClassIdentifier: 
  playerSpeed: 0.03
  cameraFollowSmoothness: 1
  doorOpenDuration: 5
  doorActivationDistance: 1
